{
  "users": [
    {
      "id": 2,
      "username": "jkemmer",
      "first_name": "Alene",
      "family_name": "Ruecker",
      "avatar": "http://www.gravatar.com/avatar/3a4412a4a9e48cf09f9ad2ff51f95a5d",
      "gender": 1,
      "birthday": "1921-02-10",
      "bio": "Autem eos et delectus architecto animi hic illo sit. Facere temporibus est quos odit iste. Est soluta expedita et nulla. Sint est esse at qui at recusandae.",
      "country_id": 702,
      "email_verified": 0,
      "last_active_at": null,
      "created_at": "2016-05-18 18:43:29",
      "updated_at": "2016-05-18 18:43:29",
      "pivot": {
        "sender_id": 1,
        "target_id": 2,
        "created_at": "2016-05-19 17:32:56",
        "updated_at": "2016-05-19 17:32:56"
      },
      "interests": [],
      "spoken_languages": [],
      "learning_languages": [],
      "country": {
        "id": 702,
        "country_code": "702",
        "full_name": "Republic of Singapore",
        "name": "Singapore",
        "calling_code": "65",
        "flag": "/images/flags/sg.png"
      }
    },
    {
      "id": 3,
      "username": "mabel99",
      "first_name": "Luz",
      "family_name": "Feeney",
      "avatar": "http://www.gravatar.com/avatar/d521fc4828542b86b9ff4e94f33d720f",
      "gender": 2,
      "birthday": "1955-01-20",
      "bio": "Voluptatem saepe omnis et placeat. Optio distinctio soluta fugit et. Exercitationem illum non esse doloribus aut et.",
      "country_id": 702,
      "email_verified": 0,
      "last_active_at": null,
      "created_at": "2016-05-18 18:43:29",
      "updated_at": "2016-05-18 18:43:29",
      "pivot": {
        "sender_id": 1,
        "target_id": 3,
        "created_at": "2016-05-21 12:50:39",
        "updated_at": "2016-05-21 12:50:39"
      },
      "interests": [],
      "spoken_languages": [],
      "learning_languages": [],
      "country": {
        "id": 702,
        "country_code": "702",
        "full_name": "Republic of Singapore",
        "name": "Singapore",
        "calling_code": "65",
        "flag": "/images/flags/sg.png"
      }
    },
    {
      "id": 4,
      "username": "eleanora06",
      "first_name": "Noemie",
      "family_name": "Mohr",
      "avatar": "http://www.gravatar.com/avatar/cc0a95cadebcf120ce804a632e445836",
      "gender": 1,
      "birthday": "1993-10-23",
      "bio": "Non alias porro quis rerum. Sit explicabo ipsa aut. Nesciunt corporis non optio voluptatem.\nPossimus occaecati laboriosam occaecati. Non enim dolorem vel. Corporis itaque sequi in velit autem sequi.",
      "country_id": 702,
      "email_verified": 0,
      "last_active_at": null,
      "created_at": "2016-05-18 18:43:29",
      "updated_at": "2016-05-18 18:43:29",
      "pivot": {
        "sender_id": 1,
        "target_id": 4,
        "created_at": "2016-05-21 12:39:49",
        "updated_at": "2016-05-21 12:39:49"
      },
      "interests": [],
      "spoken_languages": [],
      "learning_languages": [],
      "country": {
        "id": 702,
        "country_code": "702",
        "full_name": "Republic of Singapore",
        "name": "Singapore",
        "calling_code": "65",
        "flag": "/images/flags/sg.png"
      }
    }
  ]
}