{
    "user": {
        "avatar": null,
        "bio": null,
        "birthday": null,
        "country": null,
        "created_at": "2016-04-11 14:56:58",
        "email_verified": 0,
        "family_name": null,
        "first_name": null,
        "gender": null,
        "id": 1,
        "interests": [{
            "id": 8,
            "interest_user_count": 0,
            "name": "Interest-6455",
            "pivot": {
                "interest_id": 8,
                "user_id": 1
            }
        }, {
            "id": 10,
            "interest_user_count": 1,
            "name": "Interest-7275",
            "pivot": {
                "interest_id": 10,
                "user_id": 1
            }
        }, {
            "id": 16,
            "interest_user_count": 0,
            "name": "Interest-3792",
            "pivot": {
                "interest_id": 16,
                "user_id": 1
            }
        }],
        "learning_languages": [{
            "code": "ALB",
            "flag": "",
            "id": 2,
            "name": "Albania",
            "pivot": {
                "created_at": "2016-04-11 14:57:04",
                "language_id": 2,
                "proficiency": 0,
                "updated_at": "2016-04-11 14:57:04",
                "user_id": 1
            }
        }],
        "spoken_languages": [{
            "code": "AFG",
            "flag": "",
            "id": 1,
            "name": "Afghanistan",
            "pivot": {
                "created_at": "2016-04-11 14:57:04",
                "language_id": 1,
                "proficiency": 5,
                "updated_at": "2016-04-11 14:57:04",
                "user_id": 1
            }
        }],
        "status": null,
        "updated_at": "2016-04-11 14:56:58",
        "username": null
    }
}
