{
    "user": {
        "id": 1,
        "username": "test name",
        "first_name": "first_name",
        "family_name": "family_name",
        "avatar": "http://www.gravatar.com/avatar/374e847cf9bcccdbece1bea49b8f9d2b",
        "gender": 1,
        "birthday": "2016-05-02",
        "bio": "updated",
        "country": null,
        "email_verified": 0,
        "status": 1,
        "created_at": "2016-05-02 13:36:10",
        "updated_at": "2016-05-02 14:20:27",
        "interests": [{
            "id": 1,
            "name": "Interest-2590",
            "interest_user_count": 1,
            "pivot": {
                "user_id": 1,
                "interest_id": 1
            }
        }],
        "spoken_languages": [{
            "id": 1,
            "code": "AFG",
            "name": "Afghanistan",
            "flag": "",
            "pivot": {
                "user_id": 1,
                "language_id": 1,
                "proficiency": 1,
                "created_at": "2016-05-02 14:02:54",
                "updated_at": "2016-05-02 14:02:54"
            }
        }, {
            "id": 2,
            "code": "ALB",
            "name": "Albania",
            "flag": "",
            "pivot": {
                "user_id": 1,
                "language_id": 2,
                "proficiency": 2,
                "created_at": "2016-05-02 14:02:54",
                "updated_at": "2016-05-02 14:02:54"
            }
        }],
        "learning_languages": [{
            "id": 1,
            "code": "AFG",
            "name": "Afghanistan",
            "flag": "",
            "pivot": {
                "user_id": 1,
                "language_id": 1,
                "proficiency": 5,
                "created_at": "2016-05-02 14:05:12",
                "updated_at": "2016-05-02 14:09:21"
            }
        }, {
            "id": 2,
            "code": "ALB",
            "name": "Albania",
            "flag": "",
            "pivot": {
                "user_id": 1,
                "language_id": 2,
                "proficiency": 2,
                "created_at": "2016-05-02 14:05:12",
                "updated_at": "2016-05-02 14:05:12"
            }
        }]
    }
}
