{
    "visibility_same_gender" : true,
    "visibility_min_age" : 13,
    "visibility_max_age" : 14,
    "visibility_speaking_native_language_match" : true,
    "visibility_learning_native_language_match" : true,
    "visibility_location_match" : true,
    "visibility_max_distance" : 1
}