{
    "metas": [{
        "name": "slider-1",
        "category": 1,
        "content": "https://www.gravatar.com/avatar/3fb609d909e2ebf56213c1b894703453?s=328&d=identicon&r=PG"
    }, {
        "name": "slider-2",
        "category": 1,
        "content": "https://www.gravatar.com/avatar/3fb609d909e2ebf56213c1b894703453?s=328&d=identicon&r=PG"
    }, {
        "name": "slider-3",
        "category": 1,
        "content": "https://www.gravatar.com/avatar/3fb609d909e2ebf56213c1b894703453?s=328&d=identicon&r=PG"
    }, {
        "name": "slider-4",
        "category": 1,
        "content": "https://www.gravatar.com/avatar/3fb609d909e2ebf56213c1b894703453?s=328&d=identicon&r=PG"
    }, {
        "name": "slider-5",
        "category": 1,
        "content": "https://www.gravatar.com/avatar/3fb609d909e2ebf56213c1b894703453?s=328&d=identicon&r=PG"
    }]
}
